<?xml version="1.0" encoding="utf-8"?>
<!-- Generator: Adobe Illustrator 19.2.1, SVG Export Plug-In . SVG Version: 6.00 Build 0)  -->
<svg version="1.1" id="Layer_1" xmlns:sketch="http://www.bohemiancoding.com/sketch/ns"
	 xmlns="http://www.w3.org/2000/svg" xmlns:xlink="http://www.w3.org/1999/xlink" x="0px" y="0px" viewBox="0 0 76 76"
	 style="enable-background:new 0 0 76 76;" xml:space="preserve">
<style type="text/css">
	.st0{fill:none;stroke:#E5E5E4;stroke-width:2;stroke-linecap:round;stroke-linejoin:round;stroke-miterlimit:10;}
	.st1{fill:#8C929D;}
	.st2{fill:#FC6D26;}
	.st3{fill:#E24329;}
	.st4{fill:#FCA326;}
	.st5{fill:#444444;}
	.st6{fill:#554488;}
	.st7{fill:#4887C5;}
	.st8{fill:url(#SVGID_1_);}
	.st9{fill:url(#SVGID_2_);}
	.st10{fill:#FFFFFF;}
	.st11{opacity:0.1;}
	.st12{fill:#5C5C5C;}
	.st13{fill:#787878;}
	.st14{fill:#A1A1A1;}
	.st15{opacity:0.15;}
	.st16{fill:#373D47;}
	.st17{fill:none;stroke:#000000;stroke-miterlimit:10;}
	.st18{fill:none;stroke:#FC6D26;stroke-width:1.8;stroke-linecap:round;stroke-linejoin:round;stroke-miterlimit:10;}
	.st19{fill:none;stroke:#E24329;stroke-width:1.8;stroke-linecap:round;stroke-linejoin:round;stroke-miterlimit:10;}
	.st20{fill:none;stroke:#FCA326;stroke-width:1.8;stroke-linecap:round;stroke-linejoin:round;stroke-miterlimit:10;}
	.st21{fill:none;stroke:#E5E5E4;stroke-width:1.8;stroke-linecap:round;stroke-linejoin:round;stroke-miterlimit:10;}
	.st22{fill:#2B2B2B;}
	.st23{fill:#FFFFFF;stroke:#E5E5E4;stroke-width:2;stroke-linecap:round;stroke-linejoin:round;stroke-miterlimit:10;}
	.st24{fill:#E5E5E4;}
	.st25{fill:none;stroke:#E5E5E4;stroke-width:1.8353;stroke-linecap:round;stroke-linejoin:round;stroke-miterlimit:10;}
	.st26{fill:none;stroke:#E14329;stroke-width:2;stroke-linecap:round;stroke-linejoin:round;stroke-miterlimit:10;}
	.st27{fill:#FFFFFF;stroke:#E14329;stroke-width:2;stroke-linecap:round;stroke-linejoin:round;stroke-miterlimit:10;}
	.st28{fill:none;stroke:#FCA326;stroke-width:2;stroke-linecap:round;stroke-linejoin:round;stroke-miterlimit:10;}
	.st29{fill:#E14329;}
	.st30{fill:none;stroke:#E14329;stroke-width:1.8353;stroke-linecap:round;stroke-linejoin:round;stroke-miterlimit:10;}
	.st31{fill:none;stroke:#E14329;stroke-width:2.055;stroke-linecap:round;stroke-linejoin:round;stroke-miterlimit:10;}
</style>
<path class="st4" d="M73.5,0C61.7,0,54,2,46.4,7.2C44.9,5.3,42.6,4,40,4c-4.4,0-8,3.6-8,8c0,4.4,3.6,8,8,8c4.4,0,8-3.6,8-8
	c0-1.1-0.2-2.1-0.6-3C54.6,4,62,2,73.5,2C73.7,2,74,2.2,74,2.5c0,8.1-1.2,14.7-4.1,20.7L65,19c0.6-0.8,1-1.9,1-3c0-2.8-2.2-5-5-5
	s-5,2.2-5,5c0,2.8,2.2,5,5,5c0.9,0,1.7-0.3,2.5-0.7L69,25c-2.3,4.3-5.4,8.4-9.6,12.6c-2.5,2.4-5.3,5-8.8,7.9
	c-0.2,0.2-0.3,0.4-0.4,0.7l-0.9,17.1c0,0.2-0.1,0.3-0.2,0.4L31.7,74c0,0-0.1,0-0.2,0c-0.2,0-0.3-0.1-0.3-0.1L28.3,71
	c-0.1-0.2-0.2-0.3-0.2-0.5L32,58c0.1-0.4,0-0.7-0.2-1L19,44.3c-0.3-0.3-0.6-0.4-1-0.2L5.5,47.9c0,0,0,0-0.1,0
	c-0.2,0-0.3-0.1-0.4-0.1l-2.9-2.9C2,44.7,2,44.5,2.1,44.3l10.1-17.4c0.1-0.2,0.3-0.3,0.4-0.3l17.2-0.9c0.6,0,1-0.5,0.9-1.1
	c0-0.6-0.5-1-1.1-0.9l-17.2,0.9c-0.8,0.1-1.5,0.5-1.9,1.2L0.3,43.3c-0.5,0.9-0.4,2.1,0.4,3l2.9,2.9c0.4,0.4,1.1,0.7,1.8,0.7
	c0.2,0,0.4,0,0.7-0.1L18,46.1L29.9,58l-3.7,12c-0.2,0.8,0,1.7,0.6,2.4l3,3c0.5,0.4,1.1,0.6,1.7,0.6c0.5,0,0.9-0.1,1.2-0.3l17.5-10.2
	c0.7-0.4,1.1-1.1,1.2-2l0.9-16.8c3.3-2.8,6.1-5.4,8.6-7.8C71.7,28,76,17.8,76,2.5C76,1.1,74.9,0,73.5,0z M40,18c-3.3,0-6-2.7-6-6
	c0-3.3,2.7-6,6-6c3.3,0,6,2.7,6,6C46,15.3,43.3,18,40,18z M61,19c-1.7,0-3-1.3-3-3c0-1.7,1.3-3,3-3s3,1.3,3,3C64,17.7,62.7,19,61,19
	z"/>
</svg>
