<?xml version="1.0" encoding="utf-8"?>
<!-- Generator: Adobe Illustrator 21.0.2, SVG Export Plug-In . SVG Version: 6.00 Build 0)  -->
<svg version="1.1" id="Layer_1" xmlns="http://www.w3.org/2000/svg" xmlns:xlink="http://www.w3.org/1999/xlink" x="0px" y="0px"
	 viewBox="0 0 1957 2500" style="enable-background:new 0 0 1957 2500;" xml:space="preserve">
<path d="M1788.3,1134.6l-17.7-31.5c0.7-226.4-102.8-318.7-223.5-388.9c36.5-9.8,74.2-17.8,84.6-64.4c62.7-16.3,75.9-45.8,82.2-77
	c16.4-11.1,71.3-42.3,65.6-95.9c30.7-21.5,47.9-49.2,39.2-88.4c33.1-36.6,41.7-66.8,27.7-94.7c39.7-50,22.1-76,5.1-102.2
	c29.7-54.7,3.5-113.4-79.6-103.6c-33-49.3-105.1-38.1-116.2-37.9c-12.5-15.8-28.9-29.4-79.5-22.8c-32.8-29.7-69.5-24.6-107.3-10
	c-44.9-35.4-74.6-7-108.6,3.7c-54.4-17.8-66.8,6.6-93.5,16.5c-59.3-12.5-77.3,14.7-105.7,43.5l-33.1-0.7
	c-89.4,52.7-133.9,160-149.6,215.2C962.7,240.3,918.3,133,828.9,80.3L795.9,81c-28.5-28.8-46.5-56.1-105.8-43.5
	C663.4,27.5,651,3.2,596.6,21c-22.3-7-42.8-21.7-66.9-20.9l0,0c-12.6,0.4-26.2,5.1-41.7,17.2c-37.8-14.6-74.5-19.6-107.3,10
	c-50.6-6.6-67.1,7-79.5,22.8C290.1,49.9,218.1,38.7,185,88c-83-9.8-109.3,48.8-79.5,103.6c-17,26.3-34.5,52.2,5.1,102.2
	c-14,27.9-5.3,58.1,27.7,94.7c-8.7,39.2,8.4,66.8,39.2,88.4c-5.8,53.6,49.2,84.8,65.6,95.9c6.3,31.2,19.4,60.7,82.2,77
	c10.4,46.6,48.1,54.6,84.6,64.4c-120.7,70.2-224.2,162.4-223.5,388.9l-17.7,31.5c-138.4,84.2-262.9,354.6-68.2,574.5
	c12.7,68.8,34,118.2,53,172.9c28.4,220.4,213.8,323.7,262.7,335.9c71.6,54.6,147.9,106.3,251.2,142.6
	c97.3,100.4,202.8,138.6,308.8,138.6c1.6,0,216.2-38.2,313.5-138.6c103.2-36.3,179.5-88,251.2-142.6
	c48.9-12.2,234.2-115.4,262.6-335.9c19-54.7,40.3-104.1,53-172.9C2051.2,1489.3,1926.7,1218.8,1788.3,1134.6z M1663.2,1095.9
	c-7.2,91.2-475.4-317.6-394.6-331.2C1488,727.7,1670.6,858,1663.2,1095.9z M1149.1,142.9c4.1,20.5,8.6,33.4,13.9,37.3
	c26-28.3,47.3-57.3,80.8-84.6c0.1,16-8,33.4,12,46.1c18-24.5,42.3-46.4,74.5-65c-15.5,27.2-2.7,35.4,5.7,46.7
	c24.6-21.4,48-43.2,93.4-60c-12.4,15.4-29.8,30.3-11.4,48c25.4-16.1,50.9-32.1,111.1-43.6c-13.6,15.4-41.6,30.7-24.6,46.1
	c31.8-12.3,67.1-21.3,106.1-26.5c-18.7,15.6-34.2,30.9-18.9,42.9c34.1-10.6,81-25,126.9-12.6l-29,29.7c-3.2,4,67.9,3.1,114.9,3.8
	c-17.1,24.2-34.6,47.5-44.8,89c4.7,4.8,27.9,2.1,49.9,0c-22.5,48.1-61.6,60.2-70.7,80.8c13.7,10.6,32.8,7.8,53.7,0.6
	c-16.2,33.9-50.2,57.1-77,84.6c6.8,4.9,18.6,7.8,46.7,4.4c-24.8,26.8-54.8,51.2-90.3,73.2c6.3,7.4,27.9,7.1,48,7.6
	c-32.2,32-73.6,48.5-112.4,69.4c19.3,13.4,33.2,10.3,48,10.1c-27.4,22.9-74.1,34.8-117.4,48.6c8.2,13,16.5,16.6,34.1,20.2
	c-45.8,25.8-111.5,14-130,27.1c4.5,12.9,17.1,21.4,32.2,28.4c-73.8,4.3-275.7-2.7-314.4-157.8c75.6-84.3,213.5-183.2,450.7-305.5
	c-184.5,62.7-351.1,146.3-490.4,261.3C956.2,415.8,1069.2,220.4,1149.1,142.9z M977.5,702.2L977.5,702.2
	c116.2-1.3,260.1,86.7,259.5,169.6c-0.5,73.2-101,132.4-258.6,131.3c-154.3-1.8-258.2-74.4-257.8-145.3
	C720.9,799.4,846.6,698.8,977.5,702.2z M390.2,639.7c17.6-3.7,25.9-7.2,34.1-20.2c-43.3-13.8-90-25.7-117.4-48.6
	c14.8,0.2,28.6,3.3,48-10.1c-38.8-20.9-80.2-37.5-112.4-69.4c20.1-0.5,41.7-0.2,48-7.6c-35.5-22-65.5-46.5-90.3-73.2
	c28.1,3.4,39.9,0.5,46.7-4.4c-26.8-27.5-60.8-50.7-77-84.6c20.8,7.2,39.9,9.9,53.7-0.6c-9.1-20.6-48.2-32.7-70.7-80.8
	c21.9,2.1,45.2,4.8,49.9,0c-10.2-41.5-27.7-64.8-44.8-89c47-0.7,118.1,0.2,114.9-3.8l-29-29.7c45.9-12.4,92.8,2,126.9,12.6
	c15.3-12.1-0.3-27.3-18.9-42.9c39,5.2,74.2,14.2,106.1,26.5c17-15.4-11-30.7-24.6-46.1c60.2,11.4,85.7,27.5,111.1,43.6
	c18.4-17.6,1.1-32.6-11.4-48c45.4,16.8,68.8,38.5,93.4,60c8.3-11.3,21.2-19.5,5.7-46.7c32.2,18.6,56.5,40.5,74.5,65
	c20-12.7,11.9-30.1,12-46.1c33.5,27.3,54.8,56.3,80.8,84.6c5.2-3.8,9.8-16.8,13.9-37.2c79.9,77.6,192.9,272.9,29,350.4
	C702.9,378.3,536.4,294.7,352,232c237.1,122.3,374.9,221.2,450.5,305.4c-38.7,155.1-240.6,162.2-314.4,157.8
	c15.1-7,27.7-15.5,32.2-28.4C501.7,653.7,436.1,665.5,390.2,639.7z M662.4,757.7c80.8,13.6-387.4,422.4-394.6,331.2
	C260.4,851.1,442.9,720.7,662.4,757.7z M170.8,1668.8c-113.8-91.5-150.4-359.5,60.5-480C358.4,1154.7,274.2,1714.7,170.8,1668.8z
	 M614.3,2148.5c-64.2,38.7-220,22.8-330.8-136.4c-74.7-133.5-65.1-269.4-12.6-309.3c78.4-47.8,199.6,16.8,292.9,125h0h0
	C645.1,1925.7,682.2,2097.8,614.3,2148.5z M488.2,1564.4c-117.8-77.2-139-252-47.4-390.6c91.6-138.6,261.3-188.4,379-111.2
	c117.8,77.2,139,252,47.4,390.6C775.7,1591.8,606,1641.6,488.2,1564.4z M978,2421.2c-141.2,6.1-279.6-115.6-277.8-157.8
	c-2.1-61.9,171.9-110.2,285.3-107.3v0c114.2-5,267.4,36.8,267.7,92.2C1255.1,2302,1114.3,2423.6,978,2421.2z M1268.5,1811.2
	L1268.5,1811.2c0.8,144.7-125.7,262.7-282.7,263.4c-157,0.8-284.9-115.9-285.7-260.7c0-0.9,0-1.8,0-2.8
	c-0.8-144.7,125.7-262.7,282.7-263.4c157-0.8,284.9,115.9,285.7,260.7V1811.2z M1090.3,1439.3c-91.6-138.6-70.3-313.4,47.4-390.6
	c117.8-77.1,287.5-27.4,379,111.2c91.6,138.6,70.3,313.4-47.4,390.6C1351.5,1627.6,1181.8,1577.8,1090.3,1439.3z M1665.9,2019.8
	c-121.6,168.8-286.3,175.4-347.7,128.3c-64.2-60.5-15.2-248.4,72.8-351.4v0c100.6-113.6,208.2-187.8,283.2-129.9
	C1724.6,1717.1,1754.2,1906.5,1665.9,2019.8z M1761.1,1661.8c-103.4,46-187.7-514.1-60.5-480
	C1911.5,1302.2,1874.9,1570.3,1761.1,1661.8z"/>
</svg>
